<?xml version="1.0" encoding="UTF-8"?>
<svg width="48px" height="48px" viewBox="0 0 48 48" version="1.1" xmlns="http://www.w3.org/2000/svg" xmlns:xlink="http://www.w3.org/1999/xlink">
    <!-- Generator: Sketch 63.1 (92452) - https://sketch.com -->
    <title>Group 9</title>
    <desc>Created with Sketch.</desc>
    <defs>
        <linearGradient x1="0%" y1="100%" x2="98.5468761%" y2="0%" id="linearGradient-1">
            <stop stop-color="#40E299" offset="0%"></stop>
            <stop stop-color="#29C4B3" offset="100%"></stop>
        </linearGradient>
    </defs>
    <g id="Symbols" stroke="none" stroke-width="1" fill="none" fill-rule="evenodd">
        <g id="icon/better-home">
            <g id="Group-9">
                <rect id="Rectangle" fill="url(#linearGradient-1)" x="0" y="0" width="48" height="48" rx="8.72727273"></rect>
                <g id="icon/betterhome" transform="translate(11.000000, 11.000000)" fill="#FFFFFF">
                    <path d="M14.6226328,4.26780076 L22.1268064,10.255244 C22.7689064,10.7675638 23.1428571,11.5443286 23.1428571,12.3657688 L23.1428571,20.4428571 C23.1428571,21.934026 21.934026,23.1428571 20.4428571,23.1428571 L6.55714286,23.1428571 C5.06597403,23.1428571 3.85714286,21.934026 3.85714286,20.4428571 L3.85714286,12.3657688 C3.85714286,11.5443286 4.23109365,10.7675638 4.87319361,10.255244 L12.3773672,4.26780076 C13.0340785,3.74382281 13.9659215,3.74382281 14.6226328,4.26780076 Z M19.7719072,16.3532888 C19.509407,16.0442207 19.0396849,16.0011902 18.7227534,16.2571774 C18.6746152,16.2960589 18.6259381,16.3344065 18.5767341,16.3722103 L18.5767341,16.3722103 L18.4211066,16.4886847 L18.2621558,16.6015204 C18.0251137,16.7653614 17.7777203,16.9169315 17.5212062,17.0553789 C16.317951,17.7048073 14.9387268,18.0533876 13.5,18.0533876 C12.0612732,18.0533876 10.682049,17.7048073 9.4787938,17.0553789 C9.22227967,16.9169315 8.97488629,16.7653614 8.73784425,16.6015204 C8.63078766,16.5275239 8.52589143,16.4510583 8.42326589,16.3722103 L8.42326589,16.3722103 L8.2772466,16.2571774 C7.96031511,16.0011902 7.49059297,16.0442207 7.22809283,16.3532888 C6.96559269,16.6623568 7.00971802,17.1204246 7.3266495,17.3764118 L7.3266495,17.3764118 L7.50100268,17.5137665 C7.62342616,17.6078254 7.74849915,17.6989992 7.8760904,17.7871889 C8.15821212,17.9821886 8.45238399,18.1624183 8.75715033,18.3269087 C10.1809084,19.0953484 11.8083897,19.5066722 13.5,19.5066722 C15.1916103,19.5066722 16.8190916,19.0953484 18.2428497,18.3269087 C18.547616,18.1624183 18.8417879,17.9821886 19.1239096,17.7871889 C19.2515008,17.6989992 19.3765738,17.6078254 19.4989973,17.5137665 L19.4989973,17.5137665 L19.6733505,17.3764118 C19.990282,17.1204246 20.0344073,16.6623568 19.7719072,16.3532888 Z" id="Combined-Shape"></path>
                </g>
            </g>
        </g>
    </g>
</svg>