<?xml version="1.0" encoding="UTF-8"?>
<svg width="48px" height="48px" viewBox="0 0 48 48" version="1.1" xmlns="http://www.w3.org/2000/svg" xmlns:xlink="http://www.w3.org/1999/xlink">
    <!-- Generator: Sketch 63.1 (92452) - https://sketch.com -->
    <title>Group 6</title>
    <desc>Created with Sketch.</desc>
    <defs>
        <linearGradient x1="100%" y1="100%" x2="0%" y2="0%" id="linearGradient-1">
            <stop stop-color="#FBC79A" offset="0%"></stop>
            <stop stop-color="#D73E68" offset="100%"></stop>
        </linearGradient>
    </defs>
    <g id="Symbols" stroke="none" stroke-width="1" fill="none" fill-rule="evenodd">
        <g id="icon/food">
            <g id="Group-6">
                <rect id="Rectangle" fill="url(#linearGradient-1)" x="0" y="0" width="48" height="48" rx="8.72727273"></rect>
                <g id="icon/eat" transform="translate(12.218182, 11.345455)" fill="#FFFFFF">
                    <g id="noun_Apple_1028847" transform="translate(2.945455, 1.745455)">
                        <g id="Group" transform="translate(0.000000, 0.139161)">
                            <path d="M5.67395133,0.0851869091 C5.50246339,0.102052364 5.34805845,0.239282182 5.30577014,0.412459636 C4.94549897,1.86247418 5.08406157,3.06510764 5.70025003,4.00564145 C5.80975782,4.17280145 5.93313029,4.33344655 6.06843185,4.48291418 C5.7700573,4.44673091 5.48283404,4.42858909 5.20713949,4.42836873 C3.80968962,4.42727782 2.70146235,4.87499782 1.89350313,5.64882982 C0.457257413,7.02450982 0.0204255491,9.29083636 0.276154121,11.5465527 C0.531735335,13.8022691 1.48296988,16.0920655 2.99148443,17.6079055 C4.46465352,19.0882691 6.53888405,19.7834618 8.83635964,18.8488145 C11.1338773,19.7834618 13.2080874,19.0882691 14.6812565,17.6079055 C16.18975,16.0920655 17.1409004,13.8022691 17.396608,11.5465527 C17.6522313,9.29083636 17.2155467,7.02450982 15.7792168,5.64882982 C14.9713628,4.87499782 13.8630724,4.42724945 12.4655804,4.42836873 C11.5287155,4.42902327 10.4624609,4.63327636 9.26372405,5.076096 C9.26372405,4.96141091 9.26603834,4.84746545 9.26372405,4.73518691 L9.26372405,4.72837964 C9.34903704,3.66456873 9.67932769,3.11258836 10.2236267,2.67610691 C10.7765937,2.23268291 11.6032986,1.93146109 12.6233726,1.57156145 C12.8115451,1.50977018 12.9408085,1.29686618 12.9126583,1.09428873 C12.8845503,0.891709091 12.7023318,0.723528 12.5050495,0.719288727 C12.4535882,0.718634182 12.4020638,0.727994182 12.3538215,0.746561455 C11.3352412,1.10592 10.423097,1.411032 9.70421678,1.98747055 C9.4296373,2.20769673 9.19644146,2.47231636 9.00073704,2.78519782 C8.89531081,2.43101018 8.75035237,2.10448582 8.55365912,1.79656145 C8.02608613,0.970629818 7.13041548,0.379608 5.79888068,0.092016 C5.77066743,0.086736 5.74201237,0.0844450909 5.71339938,0.0852087273 C5.70035522,0.0847178182 5.68710068,0.0847178182 5.67395133,0.0852087273 L5.67395133,0.0851869091 Z M4.22753416,7.14665816 C4.42088915,7.29249065 4.47313754,7.58804212 4.34423422,7.80679085 C3.83664051,8.66817656 3.573366,10.0085058 3.573366,11.8269939 C3.573366,12.0898972 3.38498174,12.3030224 3.15259796,12.3030224 C2.92021419,12.3030224 2.73182992,12.0898972 2.73182992,11.8269939 C2.73182992,9.83725435 3.02957947,8.32141282 3.64403387,7.2786847 C3.7729372,7.05993596 4.03417918,7.00082567 4.22753416,7.14665816 Z M6.02898379,1.04655055 C6.96496509,1.31392582 7.50461444,1.73285891 7.85017938,2.27382327 C8.23704379,2.87948509 8.39365782,3.69977455 8.42216561,4.71473236 L8.42216561,5.06245964 L8.42216561,5.06245964 C7.46676535,4.62229091 6.79112016,4.11605455 6.39716561,3.51473236 C5.98210899,2.88119127 5.83159626,2.11607345 6.02898379,1.04655055 Z" id="Shape"></path>
                        </g>
                    </g>
                </g>
            </g>
        </g>
    </g>
</svg>